…
    ## $ sprinkler_system                 <chr> "YES", "YES", "NO", "YES", "NO", "NO"…
    ## $ visitor_parking                  <chr> "PAID", "FREE", "UNAVAILABLE", "UNAVA…
    ## $ ward                             <chr> "17", "17", "03", "03", "02", "02", "…
    ## $ window_type                      <chr> "DOUBLE PANE", "DOUBLE PANE", "DOUBLE…
    ## $ year_built                       <dbl> 1967, 1970, 1927, 1959, 1943, 1952, 1…
    ## $ year_registered                  <dbl> 2017, 2017, 2017, 2017, 2017, NA, 201…
    ## $ no_of_storeys                    <dbl> 17, 14, 4, 5, 4, 4, 4, 7, 32, 4, 4, 7…
    ## $ emergency_power                  <chr> "NO", "YES", "NO", "NO", "NO", "NO", …
    ## $ `non-smoking_building`           <chr> "YES", "NO", "YES", "YES", "YES", "NO…
    ## $ no_of_units                      <dbl> 218, 206, 34, 42, 25, 34, 14, 105, 57…
    ## $ no_of_accessible_parking_spaces  <dbl> 8, 10, 20, 42, 12, 0, 5, 1, 1, 6, 12,…
    ## $ facilities_available             <chr> "Recycling bins", "Green Bin / Organi…
    ## $ cooling_room                     <chr> "NO", "NO", "NO", "NO", "NO", "NO", "…
    ## $ no_barrier_free_accessible_units <dbl> 2, 0, 0, 42, 0, NA, 14, 0, 0, 1, 25, …
    ## # A tibble: 3,455 × 37
    ##       id air_conditioning amenities             balconies barrier_free_accessi…¹
    ##    <dbl> <chr>            <chr>                 <chr>     <chr>                 
    ##  1 10359 NONE             Outdoor rec faciliti… YES       YES                   
    ##  2 10360 NONE             Outdoor pool          YES       NO                    
    ##  3 10361 NONE             <NA>                  YES       NO                    
    ##  4 10362 NONE             <NA>                  YES       YES                   
    ##  5 10363 NONE             <NA>                  NO        NO                    
    ##  6 10364 NONE             <NA>                  NO        NO                    
    ##  7 10365 NONE             <NA>                  NO        YES                   
    ##  8 10366 CENTRAL AIR      Indoor pool , Indoor… YES       NO                    
    ##  9 10367 NONE             <NA>                  YES       YES                   
    ## 10 10368 NONE             Indoor recreation ro… YES       YES                   
    ## # ℹ 3,445 more rows
    ## # ℹ abbreviated name: ¹​barrier_free_accessibilty_entr
    ## # ℹ 32 more variables: bike_parking <chr>, exterior_fire_escape <chr>,
    ## #   fire_alarm <chr>, garbage_chutes <chr>, heating_type <chr>, intercom <chr>,
    ## #   laundry_room <chr>, locker_or_storage_room <chr>, no_of_elevators <dbl>,
    ## #   parking_type <chr>, pets_allowed <chr>, prop_management_company_name <chr>,
    ## #   property_type <chr>, rsn <dbl>, separate_gas_meters <chr>, …
…
    ## $ permit_number               <chr> "BP-2016-02248", "BU468090", "DB-2016-0445…
    ## $ issue_date                  <date> 2017-02-01, 2017-02-01, 2017-02-01, 2017-…
    ## $ project_value               <dbl> 0, 0, 35000, 15000, 181178, 0, 15000, 0, 6…
    ## $ type_of_work                <chr> "Salvage and Abatement", "New Building", "…
    ## $ address                     <chr> "4378 W 9TH AVENUE, Vancouver, BC V6R 2C7"…
    ## $ project_description         <chr> NA, NA, NA, NA, NA, NA, NA, NA, NA, NA, NA…
    ## $ building_contractor         <chr> NA, NA, NA, "Mercury Contracting Ltd", "08…
    ## $ building_contractor_address <chr> NA, NA, NA, "88 W PENDER ST  \r\nUnit 2069…
    ## $ applicant                   <chr> "Raffaele & Associates DBA: Raffaele and A…
    ## $ applicant_address           <chr> "2642 East Hastings\r\nVancouver, BC  V5K …
    ## $ property_use                <chr> "Dwelling Uses", "Dwelling Uses", "Dwellin…
    ## $ specific_use_category       <chr> "One-Family Dwelling", "Multiple Dwelling"…
    ## $ year                        <dbl> 2017, 2017, 2017, 2017, 2017, 2017, 2017, …
    ## $ bi_id                       <dbl> 524, 535, 539, 541, 543, 546, 547, 548, 54…
    ## # A tibble: 20,680 × 14
    ##    permit_number issue_date project_value type_of_work                address   
    ##    <chr>         <date>             <dbl> <chr>                       <chr>     
    ##  1 BP-2016-02248 2017-02-01             0 Salvage and Abatement       4378 W 9T…
    ##  2 BU468090      2017-02-01             0 New Building                1111 RICH…
    ##  3 DB-2016-04450 2017-02-01         35000 Addition / Alteration       3732 W 12…
    ##  4 DB-2017-00131 2017-02-01         15000 Addition / Alteration       88 W PEND…
    ##  5 DB452250      2017-02-01        181178 New Building                492 E 62N…
    ##  6 BP-2016-01458 2017-02-02             0 Salvage and Abatement       3332 W 28…
    ##  7 BP-2016-02022 2017-02-02         15000 Demolition / Deconstruction 2873 W 33…
    ##  8 BP-2016-02424 2017-02-02             0 Salvage and Abatement       3579 E 26…
    ##  9 BP-2016-02588 2017-02-02      65000000 New Building                620 CARDE…
    ## 10 BP-2016-03697 2017-02-02         25000 Addition / Alteration       1868 W 5T…
    ## # ℹ 20,670 more rows
    ## # ℹ 9 more variables: project_description <chr>, building_contractor <chr>,
    ## #   building_contractor_address <chr>, applicant <chr>,
    ## #   applicant_address <chr>, property_use <chr>, specific_use_category <chr>,
    ## #   year <dbl>, bi_id <dbl>
…
    ## $ concavity_se            <dbl> 0.05373, 0.01860, 0.03832, 0.05661, 0.05688, 0…
    ## $ concave_points_se       <dbl> 0.015870, 0.013400, 0.020580, 0.018670, 0.0188…
    ## $ symmetry_se             <dbl> 0.03003, 0.01389, 0.02250, 0.05963, 0.01756, 0…
    ## $ fractal_dimension_se    <dbl> 0.006193, 0.003532, 0.004571, 0.009208, 0.0051…
    ## $ radius_worst            <dbl> 25.38, 24.99, 23.57, 14.91, 22.54, 15.47, 22.8…
    ## $ texture_worst           <dbl> 17.33, 23.41, 25.53, 26.50, 16.67, 23.75, 27.6…
    ## $ perimeter_worst         <dbl> 184.60, 158.80, 152.50, 98.87, 152.20, 103.40,…
    ## $ area_worst              <dbl> 2019.0, 1956.0, 1709.0, 567.7, 1575.0, 741.6, …
    ## $ smoothness_worst        <dbl> 0.1622, 0.1238, 0.1444, 0.2098, 0.1374, 0.1791…
    ## $ compactness_worst       <dbl> 0.6656, 0.1866, 0.4245, 0.8663, 0.2050, 0.5249…
    ## $ concavity_worst         <dbl> 0.71190, 0.24160, 0.45040, 0.68690, 0.40000, 0…
    ## $ concave_points_worst    <dbl> 0.26540, 0.18600, 0.24300, 0.25750, 0.16250, 0…
    ## $ symmetry_worst          <dbl> 0.4601, 0.2750, 0.3613, 0.6638, 0.2364, 0.3985…
    ## $ fractal_dimension_worst <dbl> 0.11890, 0.08902, 0.08758, 0.17300, 0.07678, 0…
    ## # A tibble: 569 × 32
    ##          ID diagnosis radius_mean texture_mean perimeter_mean area_mean
    ##       <dbl> <chr>           <dbl>        <dbl>          <dbl>     <dbl>
    ##  1   842302 M                18.0         10.4          123.      1001 
    ##  2   842517 M                20.6         17.8          133.      1326 
    ##  3 84300903 M                19.7         21.2          130       1203 
    ##  4 84348301 M                11.4         20.4           77.6      386.
    ##  5 84358402 M                20.3         14.3          135.      1297 
    ##  6   843786 M                12.4         15.7           82.6      477.
    ##  7   844359 M                18.2         20.0          120.      1040 
    ##  8 84458202 M                13.7         20.8           90.2      578.
    ##  9   844981 M                13           21.8           87.5      520.
    ## 10 84501001 M                12.5         24.0           84.0      476.
    ## # ℹ 559 more rows
    ## # ℹ 26 more variables: smoothness_mean <dbl>, compactness_mean <dbl>,
    ## #   concavity_mean <dbl>, concave_points_mean <dbl>, symmetry_mean <dbl>,
    ## #   fractal_dimension_mean <dbl>, radius_se <dbl>, texture_se <dbl>,
    ## #   perimeter_se <dbl>, area_se <dbl>, smoothness_se <dbl>,
    ## #   compactness_se <dbl>, concavity_se <dbl>, concave_points_se <dbl>,
    ## #   symmetry_se <dbl>, fractal_dimension_se <dbl>, radius_worst <dbl>, …
…
``` r
print(glimpse(flow_sample))
```

    ## Rows: 218
    ## Columns: 7
    ## $ station_id   <chr> "05BB001", "05BB001", "05BB001", "05BB001", "05BB001", "0…
    ## $ year         <dbl> 1909, 1910, 1911, 1912, 1913, 1914, 1915, 1916, 1917, 191…
    ## $ extreme_type <chr> "maximum", "maximum", "maximum", "maximum", "maximum", "m…
    ## $ month        <dbl> 7, 6, 6, 8, 6, 6, 6, 6, 6, 6, 6, 7, 6, 6, 6, 7, 5, 7, 6, …
    ## $ day          <dbl> 7, 12, 14, 25, 11, 18, 27, 20, 17, 15, 22, 3, 9, 5, 14, 5…
    ## $ flow         <dbl> 314, 230, 264, 174, 232, 214, 236, 309, 174, 345, 185, 24…
    ## $ sym          <chr> NA, NA, NA, NA, NA, NA, NA, NA, NA, NA, NA, NA, NA, NA, N…
    ## # A tibble: 218 × 7
    ##    station_id  year extreme_type month   day  flow sym  
    ##    <chr>      <dbl> <chr>        <dbl> <dbl> <dbl> <chr>
    ##  1 05BB001     1909 maximum          7     7   314 <NA> 
    ##  2 05BB001     1910 maximum          6    12   230 <NA> 
    ##  3 05BB001     1911 maximum          6    14   264 <NA> 
    ##  4 05BB001     1912 maximum          8    25   174 <NA> 
    ##  5 05BB001     1913 maximum          6    11   232 <NA> 
    ##  6 05BB001     1914 maximum          6    18   214 <NA> 
    ##  7 05BB001     1915 maximum          6    27   236 <NA> 
    ##  8 05BB001     1916 maximum          6    20   309 <NA> 
    ##  9 05BB001     1917 maximum          6    17   174 <NA> 
    ## 10 05BB001     1918 maximum          6    15   345 <NA> 
    ## # ℹ 208 more rows
…
vars_keep <- missing_counts %>%
  filter(missing_count < 500) %>%
  pull(variable)


apt_subset <- apt_buildings %>%
  select(all_of(vars_keep))

apt_subset
```

    ## # A tibble: 3,455 × 35
    ##       id air_conditioning balconies barrier_free_accessibilty_entr bike_parking 
    ##    <dbl> <chr>            <chr>     <chr>                          <chr>        
    ##  1 10359 NONE             YES       YES                            0 indoor par…
    ##  2 10360 NONE             YES       NO                             0 indoor par…
    ##  3 10361 NONE             YES       NO                             Not Available
    ##  4 10362 NONE             YES       YES                            Not Available
    ##  5 10363 NONE             NO        NO                             12 indoor pa…
    ##  6 10364 NONE             NO        NO                             Not Available
    ##  7 10365 NONE             NO        YES                            Not Available
    ##  8 10366 CENTRAL AIR      YES       NO                             Not Available
    ##  9 10367 NONE             YES       YES                            0 indoor par…
    ## 10 10368 NONE             YES       YES                            Not Available
    ## # ℹ 3,445 more rows
    ## # ℹ 30 more variables: exterior_fire_escape <chr>, fire_alarm <chr>,
    ## #   garbage_chutes <chr>, heating_type <chr>, intercom <chr>,
    ## #   laundry_room <chr>, locker_or_storage_room <chr>, no_of_elevators <dbl>,
    ## #   parking_type <chr>, pets_allowed <chr>, property_type <chr>, rsn <dbl>,
    ## #   separate_gas_meters <chr>, separate_hydro_meters <chr>,
    ## #   separate_water_meters <chr>, site_address <chr>, sprinkler_system <chr>, …
…
